[gd_resource type="Resource" script_class="Weapon_Resource" load_steps=3 format=3 uid="uid://cafif34xd7sn6"]

[ext_resource type="Script" path="res://scripts/weapon_resource.gd" id="1_8hi0h"]
[ext_resource type="PackedScene" uid="uid://cqaop1oy2xadd" path="res://FPS ARMS/Weapons/Rigid_Bodies/rifle.tscn" id="2_u5xvm"]

[resource]
script = ExtResource("1_8hi0h")
weapon_name = "Rifle"
activate_anim = "Rifle_Activate"
deactivate_anim = "Rifle_Deactivate"
shoot_anim = "Rifle_Shoot"
reload_anim = "Rifle_Reload"
out_of_ammo_anim = ""
melee_anim = ""
current_ammo = 20
reserve_ammo = 60
magazine = 20
max_ammo = 60
autofire = true
weapon_range = 2000
damage = 1
melee_damage = 0
melee_range = 1.5
type = 1
projectile_velocity = 0
weapon_drop = ExtResource("2_u5xvm")
can_be_dropped = true
